{

	"easycom": {
		"^u-(.*)": "@/uview-ui/components/u-$1/u-$1.vue"
	},
	"pages": [ //pages数组中第一项表示应用启动页，参考：https://uniapp.dcloud.io/collocation/pages
		{
			"path": "pages/home/home",
			"style": {
				"navigationBarTitleText": "",
				"navigationStyle": "custom" // 隐藏系统导航栏
			}
		}, 
		
		{
			"path": "pages/mine/mine",
			"style": {
				"navigationBarTitleText": "",
				"enablePullDownRefresh": false,
				"navigationBarBackgroundColor":"#FFFFFF"
			}

		}
       
        ,{
            "path" : "pages/about/about",
            "style" :                                                                                    
            {
                "navigationBarTitleText": "关于我们",
                "enablePullDownRefresh": false
            }
            
        }
      
        
        
       
        ,{
            "path" : "pages/mine-info/mine-info",
            "style" :                                                                                    
            {
                "navigationBarTitleText": "个人信息",
                "enablePullDownRefresh": false
            }
            
        }
        
     
    ],
	"globalStyle": {
		"navigationBarTextStyle": "black",
		"navigationBarTitleText": "uni-app",
		"navigationBarBackgroundColor": "#F8F8F8",
		"backgroundColor": "#F8F8F8"
	},
	"tabBar": {

		"list": [{
				"pagePath": "pages/home/home"
			},
		
			{
				"pagePath": "pages/mine/mine"
			}
		]
	}
}
