{

	"easycom": {
		"^u-(.*)": "@/uview-ui/components/u-$1/u-$1.vue"
	},
	"pages": [ //pages数组中第一项表示应用启动页，参考：https://uniapp.dcloud.io/collocation/pages
	
	
	{
	    "path" : "pages/home/home",
	    "style" :                                                                                    
	    {
	        "navigationBarTitleText": "",
	        "enablePullDownRefresh": false
	    }
	    
	},
	{
	    "path" : "pages/login/login",
	    "style" :                                                                                    
	    {
	        "navigationBarTitleText": "",
	        "enablePullDownRefresh": false
	    }
	    
	},
	{
	    "path" : "pages/mine/mine",
	    "style" :                                                                                    
	    {
	        "navigationBarTitleText": "",
	        "enablePullDownRefresh": false
	    }
	    
	},
{
            "path" : "pages/example/example",
            "style" :                                                                                    
            {
                "navigationBarTitleText": "",
                "enablePullDownRefresh": false
            }
            
        }
        ,{
            "path" : "pages/example/list",
            "style" :                                                                                    
            {
                "navigationBarTitleText": "",
                "enablePullDownRefresh": false
            }
            
        }
    ],
	"globalStyle": {
		
		 "navigationStyle":"custom"  

	},
	
	"tabBar": {

		"list": [{
				"pagePath": "pages/home/home"
		
			}, {
				"pagePath": "pages/mine/mine"
			}
		]
	}

}
