{
	// "condition": { //模式配置，仅开发期间生效
	// 	"current": 0, //当前激活的模式(list 的索引项)
	// 	"list": [{
	// 		"name": "test", //模式名称
	// 		"path": "pages/componentsA/test/test", //启动页面，必选
	// 		"query": "" //启动参数，在页面的onLoad函数里面得到
	// 	}]
	// },
	"pages": [ //pages数组中第一项表示应用启动页，参考：https://uniapp.dcloud.io/collocation/pages
		{
			"path": "pages/home/home",
			"style": {
			"navigationBarTitleText": "首页",
			"enablePullDownRefresh": false
			}
		}
	    ,{
            "path" : "pages/mine/mine",
            "style" :                                                                                    
            {
                "navigationBarTitleText": "我的",
                "enablePullDownRefresh": false
            }
            
        }
    ],
	
	


	"globalStyle": {
		"navigationBarTextStyle": "black",
		"navigationBarTitleText": "uView",
		"navigationBarBackgroundColor": "#FFFFFF",
		"backgroundColor": "#FFFFFF"
	},
	
	
	
"tabBar": {
    "color": "#7A7E83",
    "selectedColor": "#d41d19",
    "borderStyle": "black",
    "backgroundColor": "#ffffff",
    "list": [{
        "pagePath": "pages/home/home",
        "iconPath": "static/image/gift.png",
        "selectedIconPath": "static/image/gift-active.png",
        "text": "首页"
    }, {
        "pagePath": "pages/mine/mine",
        "iconPath": "static/image/my.png",
        "selectedIconPath": "static/image/my-fill.png",
        "text": "我的"
    }]
}
}
